Forest Fires - GGPLOT
…
# Transform the tibble
fires_pivot <- fires %>%
  pivot_longer(
    cols = c("FFMC", "DMC", "DC", "ISI", "temp", "RH", "wind", "rain"),
    names_to = "columns",
    values_to = "values"
  )
    
fires_pivot

## # A tibble: 4,136 x 7
##        X     Y month day    area columns values
##    <dbl> <dbl> <fct> <fct> <dbl> <chr>    <dbl>
##  1     7     5 mar   fri       0 FFMC      86.2
##  2     7     5 mar   fri       0 DMC       26.2
##  3     7     5 mar   fri       0 DC        94.3
##  4     7     5 mar   fri       0 ISI        5.1
##  5     7     5 mar   fri       0 temp       8.2
##  6     7     5 mar   fri       0 RH        51  
##  7     7     5 mar   fri       0 wind       6.7
##  8     7     5 mar   fri       0 rain       0  
##  9     7     4 oct   tue       0 FFMC      90.6
## 10     7     4 oct   tue       0 DMC       35.4
## #  with 4,126 more rows
…
